{
  "result": {
    "places": [
      {
        "name": "LGA",
        "attributes": ["","Albury","Armidale Dumaresq","Ashfield","Auburn",
"Ballina",
"Balranald",
"Bankstown",
"Bathurst Regional",
"Baulkham Hills",
"Bega Valley",
"Bellingen",
"Berrigan",
"Blacktown",
"Bland",
"Blayney",
"Blue Mountains",
"Bogan",
"Bombala",
"Boorowa",
"Botany Bay",
"Bourke",
"Brewarrina",
"Broken Hill",
"Burwood",
"Byron",
"Cabonne",
"Camden",
"Campbelltown",
"Canada Bay",
"Canterbury",
"Carrathool",
"Central Darling",
"Cessnock",
"Clarence Valley",
"Cobar",
"Coffs Harbour",
"Conargo",
"Coolamon",
"Cooma-Monaro",
"Coonamble",
"Cootamundra",
"Corowa",
"Cowra",
"Deniliquin",
"Dubbo",
"Dungog",
"Eurobodalla",
"Fairfield",
"Forbes",
"Gilgandra",
"Glen Innes Severn Shire",
"Gloucester",
"Gosford",
"Goulburn Mulwaree",
"Great Lakes",
"Greater Hume",
"Greater Taree",
"Griffith",
"Gundagai",
"Gunnedah",
"Guyra",
"Gwydir",
"Harden",
"Hawkesbury",
"Hay",
"Holroyd",
"Hornsby",
"Hunters Hill",
"Hurstville",
"Inverell",
"Jerilderie",
"Junee",
"Kempsey",
"Kiama",
"Kogarah",
"Ku-Ring-Gai",
"Kyogle",
"Lachlan",
"Lake Macquarie",
"Lane Cove",
"Leeton",
"Leichhardt",
"Lismore",
"Lithgow",
"Liverpool",
"Liverpool Plains",
"Lockhart",
"Maitland",
"Manly",
"Marrickville",
"Mid-Western Regional",
"Moree Plains",
"Mosman",
"Murray",
"Murrumbidgee",
"Muswellbrook",
"Nambucca",
"Narrabri",
"Narrandera",
"Narromine",
"Newcastle",
"North Sydney",
"Oberon",
"Orange",
"Palerang",
"Parkes",
"Parramatta",
"Penrith",
"Pittwater",
"Port Macquarie-Hastings",
"Port Stephens",
"Queanbeyan City",
"Randwick",
"Richmond Valley",
"Rockdale",
"Ryde",
"Shellharbour",
"Shoalhaven",
"Singleton",
"Snowy River",
"Strathfield",
"Sutherland",
"Sydney",
"Tamworth Regional",
"Temora",
"Tenterfield",
"Tumbarumba",
"Tumut",
"Tweed",
"Unincorporated",
"Upper Hunter",
"Upper Lachlan Shire",
"Uralla",
"Urana",
"Wagga Wagga",
"Wakool",
"Walcha",
"Walgett",
"Warren",
"Warringah",
"Warrumbungle",
"Waverley",
"Weddin",
"Wellington",
"Wentworth",
"Willoughby",
"Wingecarribee",
"Wollondilly",
"Wollongong",
"Woollahra",
"Wyong",
"Yass Valley",
"Young"]       
      },
      {
        "name": "NRM",
        "attributes": ["","Border Rivers/Gwydir",
"Central West",
"Hawkesbury/Nepean",
"Hunter/Central Rivers",
"Lachlan",
"Lower Murray/Darling",
"Murray",
"Murrumbidgee",
"Namoi",
"Northern Rivers",
"Southern Rivers",
"Sydney Metro",
"Western"]  
      },
      {
        "name": "IBRA",
        "attributes": ["","AUA  Australian Alps",
"BHC  Broken Hill Complex",
"CHC  Channel Country",
"COP  Cobar Peneplain",
"DRP  Darling Riverine Plains",
"MDD  Murray Darling Depression",
"MUL  Mulga Lands",
"NAN  Nandewar",
"NET  New England Tablelands",
"NNC  NSW North Coast",
"NSS  NSW South Western Slopes",
"PSI  Pacific Subtropical Islands",
"RIV  Riverina",
"SEC  South East Corner",
"SEH  South Eastern Highlands",
"SYB  Sydney Basin"]  
      }
    ]
  }
}